StartFontMetrics 4.1
FontName ChanticleerRomanNF-Bold
FullName Chanticleer Roman NF Bold
Notice Copyright [c] 2000, 2006 Nick Curtis. All Rights Reserved. Distributed under non-exclusive license by 1001 Free Fonts.
EncodingScheme FontSpecific
FamilyName Chanticleer Roman NF
Weight Bold
Version (Version 1.002)
Characters 218
ItalicAngle 0.0
Ascender 824
Descender -282
UnderlineThickness 50
UnderlinePosition -55
IsFixedPitch false
FontBBox -117 -282 1058 824
StartCharMetrics 263
C 0 ; WX 275 ; N .notdef ; B 32 -10 355 609 ;
C 1 ; WX 275 ; N .notdef ; B 32 -10 355 609 ;
C 2 ; WX 275 ; N .notdef ; B 32 -10 355 609 ;
C 3 ; WX 275 ; N .notdef ; B 32 -10 355 609 ;
C 4 ; WX 275 ; N .notdef ; B 32 -10 355 609 ;
C 5 ; WX 275 ; N .notdef ; B 32 -10 355 609 ;
C 6 ; WX 275 ; N .notdef ; B 32 -10 355 609 ;
C 7 ; WX 275 ; N .notdef ; B 32 -10 355 609 ;
C 8 ; WX 275 ; N .notdef ; B 32 -10 355 609 ;
C 9 ; WX 275 ; N .notdef ; B 32 -10 355 609 ;
C 10 ; WX 275 ; N .notdef ; B 32 -10 355 609 ;
C 11 ; WX 275 ; N .notdef ; B 32 -10 355 609 ;
C 12 ; WX 275 ; N .notdef ; B 32 -10 355 609 ;
C 13 ; WX 275 ; N .notdef ; B 32 -10 355 609 ;
C 14 ; WX 275 ; N .notdef ; B 32 -10 355 609 ;
C 15 ; WX 275 ; N .notdef ; B 32 -10 355 609 ;
C 16 ; WX 275 ; N .notdef ; B 32 -10 355 609 ;
C 17 ; WX 275 ; N .notdef ; B 32 -10 355 609 ;
C 18 ; WX 275 ; N .notdef ; B 32 -10 355 609 ;
C 19 ; WX 275 ; N .notdef ; B 32 -10 355 609 ;
C 20 ; WX 275 ; N .notdef ; B 32 -10 355 609 ;
C 21 ; WX 275 ; N .notdef ; B 32 -10 355 609 ;
C 22 ; WX 275 ; N .notdef ; B 32 -10 355 609 ;
C 23 ; WX 275 ; N .notdef ; B 32 -10 355 609 ;
C 24 ; WX 275 ; N .notdef ; B 32 -10 355 609 ;
C 25 ; WX 275 ; N .notdef ; B 32 -10 355 609 ;
C 26 ; WX 275 ; N .notdef ; B 32 -10 355 609 ;
C 27 ; WX 275 ; N .notdef ; B 32 -10 355 609 ;
C 28 ; WX 275 ; N .notdef ; B 32 -10 355 609 ;
C 29 ; WX 275 ; N .notdef ; B 32 -10 355 609 ;
C 30 ; WX 275 ; N .notdef ; B 32 -10 355 609 ;
C 31 ; WX 275 ; N .notdef ; B 32 -10 355 609 ;
C 32 ; WX 275 ; N space ; B 32 -12 159 627 ;
C 33 ; WX 191 ; N exclam ; B 32 -12 159 627 ;
C 34 ; WX 263 ; N quotedbl ; B 32 464 231 661 ;
C 35 ; WX 491 ; N numbersign ; B 32 0 459 611 ;
C 36 ; WX 387 ; N dollar ; B 32 -10 355 609 ;
C 37 ; WX 616 ; N percent ; B 32 0 584 602 ;
C 38 ; WX 617 ; N ampersand ; B 32 -1 585 590 ;
C 39 ; WX 157 ; N quotesingle ; B 32 464 125 661 ;
C 40 ; WX 336 ; N parenleft ; B 32 -282 304 680 ;
C 41 ; WX 335 ; N parenright ; B 32 -280 303 680 ;
C 42 ; WX 318 ; N asterisk ; B 32 376 286 656 ;
C 43 ; WX 510 ; N plus ; B 32 100 478 546 ;
C 44 ; WX 265 ; N comma ; B 32 -90 233 113 ;
C 45 ; WX 205 ; N hyphen ; B 32 282 173 363 ;
C 46 ; WX 191 ; N period ; B 32 -12 159 114 ;
C 47 ; WX 450 ; N slash ; B 32 -222 418 676 ;
C 48 ; WX 459 ; N zero ; B 32 -11 427 396 ;
C 49 ; WX 361 ; N one ; B 60 0 301 403 ;
C 50 ; WX 389 ; N two ; B 32 0 357 396 ;
C 51 ; WX 431 ; N three ; B 32 -198 399 396 ;
C 52 ; WX 485 ; N four ; B 32 -196 453 384 ;
C 53 ; WX 497 ; N five ; B 32 -198 465 396 ;
C 54 ; WX 455 ; N six ; B 32 -9 423 613 ;
C 55 ; WX 429 ; N seven ; B 32 -253 397 384 ;
C 56 ; WX 457 ; N eight ; B 32 -11 425 630 ;
C 57 ; WX 455 ; N nine ; B 32 -227 423 397 ;
C 58 ; WX 191 ; N colon ; B 32 -12 159 253 ;
C 59 ; WX 268 ; N semicolon ; B 32 -90 236 253 ;
C 60 ; WX 502 ; N less ; B 32 56 470 512 ;
C 61 ; WX 510 ; N equal ; B 32 227 478 418 ;
C 62 ; WX 501 ; N greater ; B 32 56 469 512 ;
C 63 ; WX 359 ; N question ; B 32 -12 327 611 ;
C 64 ; WX 733 ; N at ; B 32 -30 701 635 ;
C 65 ; WX 732 ; N A ; B 32 0 700 643 ;
C 66 ; WX 589 ; N B ; B 32 0 557 643 ;
C 67 ; WX 640 ; N C ; B 32 -13 608 657 ;
C 68 ; WX 762 ; N D ; B 32 0 730 643 ;
C 69 ; WX 560 ; N E ; B 32 0 528 643 ;
C 70 ; WX 516 ; N F ; B 32 0 484 643 ;
C 71 ; WX 714 ; N G ; B 32 -13 682 657 ;
C 72 ; WX 768 ; N H ; B 32 0 736 643 ;
C 73 ; WX 314 ; N I ; B 32 0 282 643 ;
C 74 ; WX 317 ; N J ; B -117 -174 285 643 ;
C 75 ; WX 688 ; N K ; B 32 0 656 643 ;
C 76 ; WX 560 ; N L ; B 32 0 528 643 ;
C 77 ; WX 893 ; N M ; B 32 0 861 643 ;
C 78 ; WX 830 ; N N ; B 32 0 798 643 ;
C 79 ; WX 733 ; N O ; B 32 -13 701 657 ;
C 80 ; WX 567 ; N P ; B 32 0 535 643 ;
C 81 ; WX 733 ; N Q ; B 32 -172 981 657 ;
C 82 ; WX 682 ; N R ; B 32 0 650 643 ;
C 83 ; WX 474 ; N S ; B 32 -14 442 660 ;
C 84 ; WX 678 ; N T ; B 32 0 646 682 ;
C 85 ; WX 791 ; N U ; B 32 -13 759 643 ;
C 86 ; WX 866 ; N V ; B 32 -14 834 643 ;
C 87 ; WX 1090 ; N W ; B 32 0 1058 643 ;
C 88 ; WX 774 ; N X ; B 32 0 742 643 ;
C 89 ; WX 748 ; N Y ; B 32 0 716 643 ;
C 90 ; WX 649 ; N Z ; B 32 0 617 643 ;
C 91 ; WX 251 ; N bracketleft ; B 32 -222 219 611 ;
C 92 ; WX 450 ; N backslash ; B 32 -222 418 676 ;
C 93 ; WX 251 ; N bracketright ; B 32 -222 219 611 ;
C 94 ; WX 275 ; N .notdef ; B 32 -10 355 609 ;
C 95 ; WX 500 ; N underscore ; B 0 -51 500 0 ;
C 96 ; WX 250 ; N grave ; B 32 402 218 550 ;
C 97 ; WX 432 ; N a ; B 32 -11 400 396 ;
C 98 ; WX 515 ; N b ; B 32 -11 483 608 ;
C 99 ; WX 464 ; N c ; B 32 -11 432 396 ;
C 100 ; WX 534 ; N d ; B 32 -11 502 612 ;
C 101 ; WX 458 ; N e ; B 32 -11 426 396 ;
C 102 ; WX 446 ; N f ; B 32 0 414 667 ;
C 103 ; WX 489 ; N g ; B 32 -265 457 396 ;
C 104 ; WX 564 ; N h ; B 32 0 532 612 ;
C 105 ; WX 304 ; N i ; B 32 0 272 554 ;
C 106 ; WX 235 ; N j ; B 9 -246 203 554 ;
C 107 ; WX 528 ; N k ; B 32 0 496 612 ;
C 108 ; WX 304 ; N l ; B 32 0 272 612 ;
C 109 ; WX 804 ; N m ; B 32 0 772 384 ;
C 110 ; WX 564 ; N n ; B 32 0 532 384 ;
C 111 ; WX 498 ; N o ; B 32 -11 466 396 ;
C 112 ; WX 533 ; N p ; B 32 -253 501 406 ;
C 113 ; WX 531 ; N q ; B 32 -253 499 393 ;
C 114 ; WX 392 ; N r ; B 32 0 360 396 ;
C 115 ; WX 353 ; N s ; B 32 -12 321 395 ;
C 116 ; WX 376 ; N t ; B 32 -11 344 530 ;
C 117 ; WX 563 ; N u ; B 32 -12 531 384 ;
C 118 ; WX 527 ; N v ; B 32 0 495 384 ;
C 119 ; WX 769 ; N w ; B 32 -1 737 384 ;
C 120 ; WX 527 ; N x ; B 32 0 495 384 ;
C 121 ; WX 515 ; N y ; B 32 -260 483 384 ;
C 122 ; WX 476 ; N z ; B 32 0 444 384 ;
C 123 ; WX 349 ; N braceleft ; B 32 -206 317 618 ;
C 124 ; WX 275 ; N .notdef ; B 32 -10 355 609 ;
C 125 ; WX 349 ; N braceright ; B 32 -206 317 618 ;
C 126 ; WX 275 ; N .notdef ; B 32 -10 355 609 ;
C 127 ; WX 275 ; N .notdef ; B 32 -10 355 609 ;
C 128 ; WX 275 ; N .notdef ; B 32 -10 355 609 ;
C 129 ; WX 275 ; N .notdef ; B 32 -10 355 609 ;
C 130 ; WX 208 ; N quotesinglbase ; B 32 -132 176 126 ;
C 131 ; WX 716 ; N florin ; B 32 15 684 615 ;
C 132 ; WX 358 ; N quotedblbase ; B 32 -132 330 126 ;
C 133 ; WX 467 ; N ellipsis ; B 32 -12 435 114 ;
C 134 ; WX 620 ; N dagger ; B 32 -151 588 650 ;
C 135 ; WX 594 ; N daggerdbl ; B 32 -179 562 651 ;
C 136 ; WX 314 ; N circumflex ; B 32 395 282 524 ;
C 137 ; WX 866 ; N perthousand ; B 32 0 834 602 ;
C 138 ; WX 474 ; N Scaron ; B 32 -14 442 773 ;
C 139 ; WX 222 ; N guilsinglleft ; B 32 158 190 429 ;
C 140 ; WX 907 ; N OE ; B 32 -13 875 657 ;
C 141 ; WX 275 ; N .notdef ; B 32 -10 355 609 ;
C 142 ; WX 275 ; N .notdef ; B 32 -10 355 609 ;
C 143 ; WX 275 ; N .notdef ; B 32 -10 355 609 ;
C 144 ; WX 275 ; N .notdef ; B 32 -10 355 609 ;
C 145 ; WX 208 ; N quoteleft ; B 32 416 176 674 ;
C 146 ; WX 208 ; N quoteright ; B 32 416 176 674 ;
C 147 ; WX 365 ; N quotedblleft ; B 32 416 330 674 ;
C 148 ; WX 365 ; N quotedblright ; B 32 416 330 674 ;
C 149 ; WX 267 ; N bullet ; B 32 208 235 411 ;
C 150 ; WX 510 ; N endash ; B 32 282 478 363 ;
C 151 ; WX 963 ; N emdash ; B 32 282 931 363 ;
C 152 ; WX 290 ; N tilde ; B 32 398 258 481 ;
C 153 ; WX 593 ; N trademark ; B 32 402 561 644 ;
C 154 ; WX 353 ; N scaron ; B 32 -12 321 524 ;
C 155 ; WX 193 ; N guilsinglright ; B 32 177 161 427 ;
C 156 ; WX 759 ; N oe ; B 32 -11 727 396 ;
C 157 ; WX 275 ; N .notdef ; B 32 -10 355 609 ;
C 158 ; WX 275 ; N .notdef ; B 32 -10 355 609 ;
C 159 ; WX 748 ; N Ydieresis ; B 32 0 716 726 ;
C 160 ; WX 275 ; N nbspace ; B 32 -216 159 423 ;
C 161 ; WX 191 ; N exclamdown ; B 32 -216 159 423 ;
C 162 ; WX 463 ; N cent ; B 32 -1 431 633 ;
C 163 ; WX 509 ; N sterling ; B 32 -12 477 624 ;
C 164 ; WX 694 ; N currency ; B 32 -18 662 629 ;
C 165 ; WX 727 ; N yen ; B 32 0 695 623 ;
C 166 ; WX 275 ; N .notdef ; B 32 -10 355 609 ;
C 167 ; WX 1033 ; N section ; B 32 69 1001 586 ;
C 168 ; WX 221 ; N dieresis ; B 32 403 189 467 ;
C 169 ; WX 678 ; N copyright ; B 32 8 646 622 ;
C 170 ; WX 245 ; N ordfeminine ; B 27 430 215 641 ;
C 171 ; WX 283 ; N guillemotleft ; B 32 177 251 427 ;
C 172 ; WX 510 ; N logicalnot ; B 32 146 478 363 ;
C 173 ; WX 275 ; N .notdef ; B 32 -10 355 609 ;
C 174 ; WX 352 ; N registered ; B 32 352 320 640 ;
C 175 ; WX 183 ; N macron ; B 32 397 151 433 ;
C 176 ; WX 276 ; N degree ; B 32 430 244 629 ;
C 177 ; WX 510 ; N plusminus ; B 32 1 478 546 ;
C 178 ; WX 262 ; N twosuperior ; B 32 405 230 649 ;
C 179 ; WX 291 ; N threesuperior ; B 32 284 259 651 ;
C 180 ; WX 250 ; N acute ; B 32 402 218 550 ;
C 181 ; WX 504 ; N mu ; B 32 -131 472 385 ;
C 182 ; WX 597 ; N paragraph ; B 32 -224 565 613 ;
C 183 ; WX 191 ; N periodcentered ; B 32 218 159 344 ;
C 184 ; WX 211 ; N cedilla ; B 25 -169 187 41 ;
C 185 ; WX 212 ; N onesuperior ; B 32 401 180 651 ;
C 186 ; WX 296 ; N ordmasculine ; B 32 409 264 629 ;
C 187 ; WX 283 ; N guillemotright ; B 32 177 251 427 ;
C 188 ; WX 678 ; N onequarter ; B 32 -156 646 403 ;
C 189 ; WX 709 ; N onehalf ; B 32 -54 677 403 ;
C 190 ; WX 822 ; N threequarters ; B 32 -156 790 403 ;
C 191 ; WX 359 ; N questiondown ; B 32 -224 327 399 ;
C 192 ; WX 732 ; N Agrave ; B 32 0 700 809 ;
C 193 ; WX 732 ; N Aacute ; B 32 0 700 809 ;
C 194 ; WX 732 ; N Acircumflex ; B 32 0 700 771 ;
C 195 ; WX 732 ; N Atilde ; B 32 0 700 738 ;
C 196 ; WX 732 ; N Adieresis ; B 32 0 700 723 ;
C 197 ; WX 732 ; N Aring ; B 32 0 700 782 ;
C 198 ; WX 931 ; N AE ; B 32 0 899 642 ;
C 199 ; WX 640 ; N Ccedilla ; B 32 -177 608 657 ;
C 200 ; WX 560 ; N Egrave ; B 32 0 528 809 ;
C 201 ; WX 560 ; N Eacute ; B 32 0 528 809 ;
C 202 ; WX 560 ; N Ecircumflex ; B 32 0 528 783 ;
C 203 ; WX 560 ; N Edieresis ; B 32 0 528 726 ;
C 204 ; WX 320 ; N Igrave ; B 32 0 288 809 ;
C 205 ; WX 314 ; N Iacute ; B 32 0 322 815 ;
C 206 ; WX 318 ; N Icircumflex ; B 32 0 286 783 ;
C 207 ; WX 314 ; N Idieresis ; B 32 0 282 726 ;
C 208 ; WX 780 ; N Eth ; B 32 0 748 643 ;
C 209 ; WX 830 ; N Ntilde ; B 32 0 798 740 ;
C 210 ; WX 733 ; N Ograve ; B 32 -13 701 819 ;
C 211 ; WX 733 ; N Oacute ; B 32 -13 701 824 ;
C 212 ; WX 733 ; N Ocircumflex ; B 32 -13 701 796 ;
C 213 ; WX 733 ; N Otilde ; B 32 -13 701 760 ;
C 214 ; WX 733 ; N Odieresis ; B 32 -13 701 743 ;
C 215 ; WX 434 ; N multiply ; B 32 138 402 508 ;
C 216 ; WX 744 ; N Oslash ; B 32 -19 712 661 ;
C 217 ; WX 791 ; N Ugrave ; B 32 -13 759 809 ;
C 218 ; WX 791 ; N Uacute ; B 32 -13 759 809 ;
C 219 ; WX 791 ; N Ucircumflex ; B 32 -13 759 783 ;
C 220 ; WX 791 ; N Udieresis ; B 32 -13 759 726 ;
C 221 ; WX 748 ; N Yacute ; B 32 0 716 809 ;
C 222 ; WX 567 ; N Thorn ; B 32 0 535 642 ;
C 223 ; WX 541 ; N germandbls ; B 32 -12 509 630 ;
C 224 ; WX 432 ; N agrave ; B 32 -11 400 563 ;
C 225 ; WX 432 ; N aacute ; B 32 -11 400 567 ;
C 226 ; WX 432 ; N acircumflex ; B 32 -11 400 530 ;
C 227 ; WX 432 ; N atilde ; B 32 -11 400 492 ;
C 228 ; WX 432 ; N adieresis ; B 32 -11 400 480 ;
C 229 ; WX 432 ; N aring ; B 32 -11 400 575 ;
C 230 ; WX 661 ; N ae ; B 32 -11 629 396 ;
C 231 ; WX 464 ; N ccedilla ; B 32 -174 432 396 ;
C 232 ; WX 458 ; N egrave ; B 32 -11 426 564 ;
C 233 ; WX 458 ; N eacute ; B 32 -11 426 562 ;
C 234 ; WX 458 ; N ecircumflex ; B 32 -11 426 524 ;
C 235 ; WX 458 ; N edieresis ; B 32 -11 426 476 ;
C 236 ; WX 304 ; N igrave ; B 3 0 272 550 ;
C 237 ; WX 304 ; N iacute ; B 32 0 279 550 ;
C 238 ; WX 304 ; N icircumflex ; B 28 0 278 524 ;
C 239 ; WX 304 ; N idieresis ; B 32 0 272 467 ;
C 240 ; WX 500 ; N eth ; B 32 -11 468 618 ;
C 241 ; WX 564 ; N ntilde ; B 32 0 532 490 ;
C 242 ; WX 498 ; N ograve ; B 32 -11 466 563 ;
C 243 ; WX 498 ; N oacute ; B 32 -11 466 567 ;
C 244 ; WX 498 ; N ocircumflex ; B 32 -11 466 524 ;
C 245 ; WX 498 ; N otilde ; B 32 -11 466 494 ;
C 246 ; WX 498 ; N odieresis ; B 32 -11 466 482 ;
C 247 ; WX 510 ; N divide ; B 32 131 478 516 ;
C 248 ; WX 512 ; N oslash ; B 32 -31 480 414 ;
C 249 ; WX 563 ; N ugrave ; B 32 -12 531 550 ;
C 250 ; WX 563 ; N uacute ; B 32 -12 531 550 ;
C 251 ; WX 563 ; N ucircumflex ; B 32 -12 531 528 ;
C 252 ; WX 563 ; N udieresis ; B 32 -12 531 472 ;
C 253 ; WX 515 ; N yacute ; B 32 -260 483 550 ;
C 254 ; WX 533 ; N thorn ; B 32 -253 501 622 ;
C 255 ; WX 515 ; N ydieresis ; B 32 -260 483 469 ;
C -1 ; WX 304 ; N dotlessi ; B 32 0 272 384 ;
C -1 ; WX 301 ; N caron ; B 32 399 269 514 ;
C -1 ; WX 223 ; N ring ; B 32 400 191 558 ;
C -1 ; WX 510 ; N minus ; B 32 282 478 363 ;
C -1 ; WX 694 ; N Euro ; B 32 -18 662 629 ;
C -1 ; WX 649 ; N Zcaron ; B 32 0 617 773 ;
C -1 ; WX 476 ; N zcaron ; B 32 0 444 514 ;
EndCharMetrics
StartKernData
StartKernPairs 1060
KPX quotesingle d -150
KPX A quotesingle -166
KPX A C -78
KPX A G -78
KPX A O -78
KPX A Q -84
KPX A T -94
KPX A U -100
KPX A V -180
KPX A W -180
KPX A Y -134
KPX A c -26
KPX A d -14
KPX A e -28
KPX A o -32
KPX A q -16
KPX A t -24
KPX A u -56
KPX A v -106
KPX A w -102
KPX A oe -28
KPX A Oslash -78
KPX A ae -28
KPX A oslash -32
KPX A Ccedilla -78
KPX A Ograve -78
KPX A Oacute -78
KPX A Ocircumflex -78
KPX A Otilde -78
KPX A Odieresis -78
KPX A Ugrave -100
KPX A Uacute -100
KPX A Ucircumflex -100
KPX A Udieresis -100
KPX A Ydieresis -134
KPX A ccedilla -26
KPX A egrave -28
KPX A eacute -28
KPX A ecircumflex -28
KPX A edieresis -28
KPX A ograve -32
KPX A oacute -32
KPX A ocircumflex -32
KPX A otilde -32
KPX A odieresis -32
KPX A ugrave -56
KPX A uacute -56
KPX A ucircumflex -56
KPX A udieresis -56
KPX A quotedbl -166
KPX B comma -42
KPX C comma -14
KPX D comma -102
KPX D period -46
KPX D A -70
KPX D V -70
KPX D W -70
KPX D Y -70
KPX D Agrave -70
KPX D Aacute -70
KPX D Acircumflex -70
KPX D Atilde -70
KPX D Adieresis -70
KPX D Aring -70
KPX D Ydieresis -70
KPX F comma -142
KPX F period -104
KPX F A -82
KPX F Agrave -82
KPX F Aacute -82
KPX F Acircumflex -82
KPX F Atilde -82
KPX F Adieresis -82
KPX F Aring -82
KPX G comma -48
KPX G period -14
KPX J comma -32
KPX K C -38
KPX K O -38
KPX K e -28
KPX K o -30
KPX K u -40
KPX K oe -28
KPX K Oslash -38
KPX K ae -28
KPX K oslash -30
KPX K Ccedilla -38
KPX K Ograve -38
KPX K Oacute -38
KPX K Ocircumflex -38
KPX K Otilde -38
KPX K Odieresis -38
KPX K egrave -28
KPX K eacute -28
KPX K ecircumflex -28
KPX K edieresis -28
KPX K ograve -30
KPX K oacute -30
KPX K ocircumflex -30
KPX K otilde -30
KPX K odieresis -30
KPX K ugrave -40
KPX K uacute -40
KPX K ucircumflex -40
KPX K udieresis -40
KPX L quotesingle -158
KPX L T -100
KPX L V -158
KPX L W -158
KPX L Y -142
KPX L Ydieresis -142
KPX L quotedbl -158
KPX N comma -68
KPX N period -28
KPX N A -30
KPX N Agrave -30
KPX N Aacute -30
KPX N Acircumflex -30
KPX N Atilde -30
KPX N Adieresis -30
KPX N Aring -30
KPX O comma -98
KPX O period -44
KPX O A -70
KPX O V -80
KPX O W -80
KPX O X -14
KPX O Y -80
KPX O Agrave -70
KPX O Aacute -70
KPX O Acircumflex -70
KPX O Atilde -70
KPX O Adieresis -70
KPX O Aring -70
KPX O Ydieresis -80
KPX P comma -164
KPX P period -126
KPX P A -110
KPX P e -30
KPX P o -42
KPX P oe -30
KPX P ae -30
KPX P oslash -42
KPX P Agrave -110
KPX P Aacute -110
KPX P Acircumflex -110
KPX P Atilde -110
KPX P Adieresis -110
KPX P Aring -110
KPX P egrave -30
KPX P eacute -30
KPX P ecircumflex -30
KPX P edieresis -30
KPX P ograve -42
KPX P oacute -42
KPX P ocircumflex -42
KPX P otilde -42
KPX P odieresis -42
KPX R O -56
KPX R T -78
KPX R U -100
KPX R V -118
KPX R W -118
KPX R Oslash -56
KPX R Ograve -56
KPX R Oacute -56
KPX R Ocircumflex -56
KPX R Otilde -56
KPX R Odieresis -56
KPX R Ugrave -100
KPX R Uacute -100
KPX R Ucircumflex -100
KPX R Udieresis -100
KPX S comma -38
KPX T comma -154
KPX T hyphen -52
KPX T period -118
KPX T colon -96
KPX T semicolon -150
KPX T A -116
KPX T O -20
KPX T a -72
KPX T e -86
KPX T i -10
KPX T o -90
KPX T r -46
KPX T u -46
KPX T w -46
KPX T y -46
KPX T oe -86
KPX T Oslash -20
KPX T ae -86
KPX T oslash -90
KPX T dotlessi -10
KPX T Agrave -116
KPX T Aacute -116
KPX T Acircumflex -116
KPX T Atilde -116
KPX T Adieresis -116
KPX T Aring -116
KPX T Ograve -20
KPX T Oacute -20
KPX T Ocircumflex -20
KPX T Otilde -20
KPX T Odieresis -20
KPX T agrave -72
KPX T aacute -72
KPX T acircumflex -72
KPX T atilde -72
KPX T adieresis -72
KPX T aring -72
KPX T egrave -86
KPX T eacute -86
KPX T ecircumflex -86
KPX T edieresis -86
KPX T ograve -90
KPX T oacute -90
KPX T ocircumflex -90
KPX T otilde -90
KPX T odieresis -90
KPX T ugrave -46
KPX T uacute -46
KPX T ucircumflex -46
KPX T udieresis -46
KPX T ydieresis -46
KPX T igrave -10
KPX T iacute -10
KPX T icircumflex -10
KPX T idieresis -10
KPX U comma -130
KPX U period -76
KPX U A -108
KPX U Agrave -108
KPX U Aacute -108
KPX U Acircumflex -108
KPX U Atilde -108
KPX U Adieresis -108
KPX U Aring -108
KPX V comma -262
KPX V hyphen -110
KPX V period -208
KPX V colon -158
KPX V semicolon -214
KPX V A -158
KPX V G -86
KPX V O -78
KPX V a -132
KPX V e -148
KPX V i -86
KPX V o -150
KPX V u -102
KPX V oe -148
KPX V Oslash -78
KPX V ae -148
KPX V oslash -150
KPX V dotlessi -86
KPX V Agrave -158
KPX V Aacute -158
KPX V Acircumflex -158
KPX V Atilde -158
KPX V Adieresis -158
KPX V Aring -158
KPX V Ograve -78
KPX V Oacute -78
KPX V Ocircumflex -78
KPX V Otilde -78
KPX V Odieresis -78
KPX V agrave -132
KPX V aacute -132
KPX V acircumflex -132
KPX V atilde -132
KPX V adieresis -132
KPX V aring -132
KPX V egrave -148
KPX V eacute -148
KPX V ecircumflex -148
KPX V edieresis -148
KPX V ograve -150
KPX V oacute -150
KPX V ocircumflex -150
KPX V otilde -150
KPX V odieresis -150
KPX V ugrave -102
KPX V uacute -102
KPX V ucircumflex -102
KPX V udieresis -102
KPX V igrave -86
KPX V iacute -86
KPX V icircumflex -86
KPX V idieresis -86
KPX W comma -214
KPX W hyphen -84
KPX W period -162
KPX W colon -122
KPX W semicolon -180
KPX W A -158
KPX W O -78
KPX W a -102
KPX W e -116
KPX W i -74
KPX W o -118
KPX W u -78
KPX W y -78
KPX W oe -116
KPX W Oslash -78
KPX W ae -116
KPX W oslash -118
KPX W dotlessi -74
KPX W Agrave -158
KPX W Aacute -158
KPX W Acircumflex -158
KPX W Atilde -158
KPX W Adieresis -158
KPX W Aring -158
KPX W Ograve -78
KPX W Oacute -78
KPX W Ocircumflex -78
KPX W Otilde -78
KPX W Odieresis -78
KPX W agrave -102
KPX W aacute -102
KPX W acircumflex -102
KPX W atilde -102
KPX W adieresis -102
KPX W aring -102
KPX W egrave -116
KPX W eacute -116
KPX W ecircumflex -116
KPX W edieresis -116
KPX W ograve -118
KPX W oacute -118
KPX W ocircumflex -118
KPX W otilde -118
KPX W odieresis -118
KPX W ugrave -78
KPX W uacute -78
KPX W ucircumflex -78
KPX W udieresis -78
KPX W ydieresis -78
KPX W igrave -74
KPX W iacute -74
KPX W icircumflex -74
KPX W idieresis -74
KPX Y comma -174
KPX Y hyphen -86
KPX Y period -136
KPX Y colon -126
KPX Y semicolon -170
KPX Y A -134
KPX Y O -78
KPX Y S -16
KPX Y a -106
KPX Y e -118
KPX Y i -82
KPX Y o -120
KPX Y u -82
KPX Y oe -118
KPX Y Oslash -78
KPX Y ae -118
KPX Y oslash -120
KPX Y dotlessi -82
KPX Y Agrave -134
KPX Y Aacute -134
KPX Y Acircumflex -134
KPX Y Atilde -134
KPX Y Adieresis -134
KPX Y Aring -134
KPX Y Ograve -78
KPX Y Oacute -78
KPX Y Ocircumflex -78
KPX Y Otilde -78
KPX Y Odieresis -78
KPX Y agrave -106
KPX Y aacute -106
KPX Y acircumflex -106
KPX Y atilde -106
KPX Y adieresis -106
KPX Y aring -106
KPX Y egrave -118
KPX Y eacute -118
KPX Y ecircumflex -118
KPX Y edieresis -118
KPX Y ograve -120
KPX Y oacute -120
KPX Y ocircumflex -120
KPX Y otilde -120
KPX Y odieresis -120
KPX Y ugrave -82
KPX Y uacute -82
KPX Y ucircumflex -82
KPX Y udieresis -82
KPX Y igrave -82
KPX Y iacute -82
KPX Y icircumflex -82
KPX Y idieresis -82
KPX a b -52
KPX a t -22
KPX a v -44
KPX a w -44
KPX b comma -44
KPX b u -14
KPX b v -22
KPX b ugrave -14
KPX b uacute -14
KPX b ucircumflex -14
KPX b udieresis -14
KPX c comma -22
KPX e comma -16
KPX e b -24
KPX e v -20
KPX e w -20
KPX f comma -98
KPX f period -62
KPX f one -124
KPX f a -50
KPX f e -62
KPX f f -30
KPX f o -62
KPX f oe -62
KPX f ae -62
KPX f oslash -62
KPX f agrave -50
KPX f aacute -50
KPX f acircumflex -50
KPX f atilde -50
KPX f adieresis -50
KPX f aring -50
KPX f egrave -62
KPX f eacute -62
KPX f ecircumflex -62
KPX f edieresis -62
KPX f ograve -62
KPX f oacute -62
KPX f ocircumflex -62
KPX f otilde -62
KPX f odieresis -62
KPX k e -28
KPX k o -32
KPX k oe -28
KPX k ae -28
KPX k oslash -32
KPX k egrave -28
KPX k eacute -28
KPX k ecircumflex -28
KPX k edieresis -28
KPX k ograve -32
KPX k oacute -32
KPX k ocircumflex -32
KPX k otilde -32
KPX k odieresis -32
KPX m u -56
KPX m ugrave -56
KPX m uacute -56
KPX m ucircumflex -56
KPX m udieresis -56
KPX n u -56
KPX n v -58
KPX n ugrave -56
KPX n uacute -56
KPX n ucircumflex -56
KPX n udieresis -56
KPX o comma -46
KPX o v -32
KPX o w -32
KPX p comma -42
KPX r comma -70
KPX r period -32
KPX r colon -14
KPX r semicolon -66
KPX s comma -20
KPX v comma -148
KPX v period -92
KPX v e -18
KPX v o -30
KPX v oe -18
KPX v ae -18
KPX v oslash -30
KPX v egrave -18
KPX v eacute -18
KPX v ecircumflex -18
KPX v edieresis -18
KPX v ograve -30
KPX v oacute -30
KPX v ocircumflex -30
KPX v otilde -30
KPX v odieresis -30
KPX w comma -146
KPX w period -90
KPX w e -18
KPX w o -30
KPX w oe -18
KPX w ae -18
KPX w oslash -30
KPX w egrave -18
KPX w eacute -18
KPX w ecircumflex -18
KPX w edieresis -18
KPX w ograve -30
KPX w oacute -30
KPX w ocircumflex -30
KPX w otilde -30
KPX w odieresis -30
KPX y comma -142
KPX y period -102
KPX y e -18
KPX y o -30
KPX y oe -18
KPX y ae -18
KPX y oslash -30
KPX y egrave -18
KPX y eacute -18
KPX y ecircumflex -18
KPX y edieresis -18
KPX y ograve -30
KPX y oacute -30
KPX y ocircumflex -30
KPX y otilde -30
KPX y odieresis -30
KPX Oslash comma -98
KPX Oslash period -44
KPX Oslash A -70
KPX Oslash V -80
KPX Oslash W -80
KPX Oslash X -14
KPX Oslash Y -80
KPX Oslash Agrave -70
KPX Oslash Aacute -70
KPX Oslash Acircumflex -70
KPX Oslash Atilde -70
KPX Oslash Adieresis -70
KPX Oslash Aring -70
KPX Oslash Ydieresis -80
KPX oslash comma -46
KPX oslash v -32
KPX oslash w -32
KPX Agrave quotesingle -166
KPX Agrave C -78
KPX Agrave G -78
KPX Agrave O -78
KPX Agrave Q -84
KPX Agrave T -94
KPX Agrave U -100
KPX Agrave V -180
KPX Agrave W -180
KPX Agrave Y -134
KPX Agrave c -26
KPX Agrave d -14
KPX Agrave e -28
KPX Agrave o -32
KPX Agrave q -16
KPX Agrave t -24
KPX Agrave u -56
KPX Agrave v -106
KPX Agrave w -102
KPX Agrave oe -28
KPX Agrave Oslash -78
KPX Agrave ae -28
KPX Agrave oslash -32
KPX Agrave Ccedilla -78
KPX Agrave Ograve -78
KPX Agrave Oacute -78
KPX Agrave Ocircumflex -78
KPX Agrave Otilde -78
KPX Agrave Odieresis -78
KPX Agrave Ugrave -100
KPX Agrave Uacute -100
KPX Agrave Ucircumflex -100
KPX Agrave Udieresis -100
KPX Agrave Ydieresis -134
KPX Agrave ccedilla -26
KPX Agrave egrave -28
KPX Agrave eacute -28
KPX Agrave ecircumflex -28
KPX Agrave edieresis -28
KPX Agrave ograve -32
KPX Agrave oacute -32
KPX Agrave ocircumflex -32
KPX Agrave otilde -32
KPX Agrave odieresis -32
KPX Agrave ugrave -56
KPX Agrave uacute -56
KPX Agrave ucircumflex -56
KPX Agrave udieresis -56
KPX Agrave quotedbl -166
KPX Aacute quotesingle -166
KPX Aacute C -78
KPX Aacute G -78
KPX Aacute O -78
KPX Aacute Q -84
KPX Aacute T -94
KPX Aacute U -100
KPX Aacute V -180
KPX Aacute W -180
KPX Aacute Y -134
KPX Aacute c -26
KPX Aacute d -14
KPX Aacute e -28
KPX Aacute o -32
KPX Aacute q -16
KPX Aacute t -24
KPX Aacute u -56
KPX Aacute v -106
KPX Aacute w -102
KPX Aacute oe -28
KPX Aacute Oslash -78
KPX Aacute ae -28
KPX Aacute oslash -32
KPX Aacute Ccedilla -78
KPX Aacute Ograve -78
KPX Aacute Oacute -78
KPX Aacute Ocircumflex -78
KPX Aacute Otilde -78
KPX Aacute Odieresis -78
KPX Aacute Ugrave -100
KPX Aacute Uacute -100
KPX Aacute Ucircumflex -100
KPX Aacute Udieresis -100
KPX Aacute Ydieresis -134
KPX Aacute ccedilla -26
KPX Aacute egrave -28
KPX Aacute eacute -28
KPX Aacute ecircumflex -28
KPX Aacute edieresis -28
KPX Aacute ograve -32
KPX Aacute oacute -32
KPX Aacute ocircumflex -32
KPX Aacute otilde -32
KPX Aacute odieresis -32
KPX Aacute ugrave -56
KPX Aacute uacute -56
KPX Aacute ucircumflex -56
KPX Aacute udieresis -56
KPX Aacute quotedbl -166
KPX Acircumflex quotesingle -166
KPX Acircumflex C -78
KPX Acircumflex G -78
KPX Acircumflex O -78
KPX Acircumflex Q -84
KPX Acircumflex T -94
KPX Acircumflex U -100
KPX Acircumflex V -180
KPX Acircumflex W -180
KPX Acircumflex Y -134
KPX Acircumflex c -26
KPX Acircumflex d -14
KPX Acircumflex e -28
KPX Acircumflex o -32
KPX Acircumflex q -16
KPX Acircumflex t -24
KPX Acircumflex u -56
KPX Acircumflex v -106
KPX Acircumflex w -102
KPX Acircumflex oe -28
KPX Acircumflex Oslash -78
KPX Acircumflex ae -28
KPX Acircumflex oslash -32
KPX Acircumflex Ccedilla -78
KPX Acircumflex Ograve -78
KPX Acircumflex Oacute -78
KPX Acircumflex Ocircumflex -78
KPX Acircumflex Otilde -78
KPX Acircumflex Odieresis -78
KPX Acircumflex Ugrave -100
KPX Acircumflex Uacute -100
KPX Acircumflex Ucircumflex -100
KPX Acircumflex Udieresis -100
KPX Acircumflex Ydieresis -134
KPX Acircumflex ccedilla -26
KPX Acircumflex egrave -28
KPX Acircumflex eacute -28
KPX Acircumflex ecircumflex -28
KPX Acircumflex edieresis -28
KPX Acircumflex ograve -32
KPX Acircumflex oacute -32
KPX Acircumflex ocircumflex -32
KPX Acircumflex otilde -32
KPX Acircumflex odieresis -32
KPX Acircumflex ugrave -56
KPX Acircumflex uacute -56
KPX Acircumflex ucircumflex -56
KPX Acircumflex udieresis -56
KPX Acircumflex quotedbl -166
KPX Atilde quotesingle -166
KPX Atilde C -78
KPX Atilde G -78
KPX Atilde O -78
KPX Atilde Q -84
KPX Atilde T -94
KPX Atilde U -100
KPX Atilde V -180
KPX Atilde W -180
KPX Atilde Y -134
KPX Atilde c -26
KPX Atilde d -14
KPX Atilde e -28
KPX Atilde o -32
KPX Atilde q -16
KPX Atilde t -24
KPX Atilde u -56
KPX Atilde v -106
KPX Atilde w -102
KPX Atilde oe -28
KPX Atilde Oslash -78
KPX Atilde ae -28
KPX Atilde oslash -32
KPX Atilde Ccedilla -78
KPX Atilde Ograve -78
KPX Atilde Oacute -78
KPX Atilde Ocircumflex -78
KPX Atilde Otilde -78
KPX Atilde Odieresis -78
KPX Atilde Ugrave -100
KPX Atilde Uacute -100
KPX Atilde Ucircumflex -100
KPX Atilde Udieresis -100
KPX Atilde Ydieresis -134
KPX Atilde ccedilla -26
KPX Atilde egrave -28
KPX Atilde eacute -28
KPX Atilde ecircumflex -28
KPX Atilde edieresis -28
KPX Atilde ograve -32
KPX Atilde oacute -32
KPX Atilde ocircumflex -32
KPX Atilde otilde -32
KPX Atilde odieresis -32
KPX Atilde ugrave -56
KPX Atilde uacute -56
KPX Atilde ucircumflex -56
KPX Atilde udieresis -56
KPX Atilde quotedbl -166
KPX Adieresis quotesingle -166
KPX Adieresis C -78
KPX Adieresis G -78
KPX Adieresis O -78
KPX Adieresis Q -84
KPX Adieresis T -94
KPX Adieresis U -100
KPX Adieresis V -180
KPX Adieresis W -180
KPX Adieresis Y -134
KPX Adieresis c -26
KPX Adieresis d -14
KPX Adieresis e -28
KPX Adieresis o -32
KPX Adieresis q -16
KPX Adieresis t -24
KPX Adieresis u -56
KPX Adieresis v -106
KPX Adieresis w -102
KPX Adieresis oe -28
KPX Adieresis Oslash -78
KPX Adieresis ae -28
KPX Adieresis oslash -32
KPX Adieresis Ccedilla -78
KPX Adieresis Ograve -78
KPX Adieresis Oacute -78
KPX Adieresis Ocircumflex -78
KPX Adieresis Otilde -78
KPX Adieresis Odieresis -78
KPX Adieresis Ugrave -100
KPX Adieresis Uacute -100
KPX Adieresis Ucircumflex -100
KPX Adieresis Udieresis -100
KPX Adieresis Ydieresis -134
KPX Adieresis ccedilla -26
KPX Adieresis egrave -28
KPX Adieresis eacute -28
KPX Adieresis ecircumflex -28
KPX Adieresis edieresis -28
KPX Adieresis ograve -32
KPX Adieresis oacute -32
KPX Adieresis ocircumflex -32
KPX Adieresis otilde -32
KPX Adieresis odieresis -32
KPX Adieresis ugrave -56
KPX Adieresis uacute -56
KPX Adieresis ucircumflex -56
KPX Adieresis udieresis -56
KPX Adieresis quotedbl -166
KPX Aring quotesingle -166
KPX Aring C -78
KPX Aring G -78
KPX Aring O -78
KPX Aring Q -84
KPX Aring T -94
KPX Aring U -100
KPX Aring V -180
KPX Aring W -180
KPX Aring Y -134
KPX Aring c -26
KPX Aring d -14
KPX Aring e -28
KPX Aring o -32
KPX Aring q -16
KPX Aring t -24
KPX Aring u -56
KPX Aring v -106
KPX Aring w -102
KPX Aring oe -28
KPX Aring Oslash -78
KPX Aring ae -28
KPX Aring oslash -32
KPX Aring Ccedilla -78
KPX Aring Ograve -78
KPX Aring Oacute -78
KPX Aring Ocircumflex -78
KPX Aring Otilde -78
KPX Aring Odieresis -78
KPX Aring Ugrave -100
KPX Aring Uacute -100
KPX Aring Ucircumflex -100
KPX Aring Udieresis -100
KPX Aring Ydieresis -134
KPX Aring ccedilla -26
KPX Aring egrave -28
KPX Aring eacute -28
KPX Aring ecircumflex -28
KPX Aring edieresis -28
KPX Aring ograve -32
KPX Aring oacute -32
KPX Aring ocircumflex -32
KPX Aring otilde -32
KPX Aring odieresis -32
KPX Aring ugrave -56
KPX Aring uacute -56
KPX Aring ucircumflex -56
KPX Aring udieresis -56
KPX Aring quotedbl -166
KPX Ccedilla comma -14
KPX Ntilde comma -68
KPX Ntilde period -28
KPX Ntilde A -30
KPX Ntilde Agrave -30
KPX Ntilde Aacute -30
KPX Ntilde Acircumflex -30
KPX Ntilde Atilde -30
KPX Ntilde Adieresis -30
KPX Ntilde Aring -30
KPX Ograve comma -98
KPX Ograve period -44
KPX Ograve A -70
KPX Ograve V -80
KPX Ograve W -80
KPX Ograve X -14
KPX Ograve Y -80
KPX Ograve Agrave -70
KPX Ograve Aacute -70
KPX Ograve Acircumflex -70
KPX Ograve Atilde -70
KPX Ograve Adieresis -70
KPX Ograve Aring -70
KPX Ograve Ydieresis -80
KPX Oacute comma -98
KPX Oacute period -44
KPX Oacute A -70
KPX Oacute V -80
KPX Oacute W -80
KPX Oacute X -14
KPX Oacute Y -80
KPX Oacute Agrave -70
KPX Oacute Aacute -70
KPX Oacute Acircumflex -70
KPX Oacute Atilde -70
KPX Oacute Adieresis -70
KPX Oacute Aring -70
KPX Oacute Ydieresis -80
KPX Ocircumflex comma -98
KPX Ocircumflex period -44
KPX Ocircumflex A -70
KPX Ocircumflex V -80
KPX Ocircumflex W -80
KPX Ocircumflex X -14
KPX Ocircumflex Y -80
KPX Ocircumflex Agrave -70
KPX Ocircumflex Aacute -70
KPX Ocircumflex Acircumflex -70
KPX Ocircumflex Atilde -70
KPX Ocircumflex Adieresis -70
KPX Ocircumflex Aring -70
KPX Ocircumflex Ydieresis -80
KPX Otilde comma -98
KPX Otilde period -44
KPX Otilde A -70
KPX Otilde V -80
KPX Otilde W -80
KPX Otilde X -14
KPX Otilde Y -80
KPX Otilde Agrave -70
KPX Otilde Aacute -70
KPX Otilde Acircumflex -70
KPX Otilde Atilde -70
KPX Otilde Adieresis -70
KPX Otilde Aring -70
KPX Otilde Ydieresis -80
KPX Odieresis comma -98
KPX Odieresis period -44
KPX Odieresis A -70
KPX Odieresis V -80
KPX Odieresis W -80
KPX Odieresis X -14
KPX Odieresis Y -80
KPX Odieresis Agrave -70
KPX Odieresis Aacute -70
KPX Odieresis Acircumflex -70
KPX Odieresis Atilde -70
KPX Odieresis Adieresis -70
KPX Odieresis Aring -70
KPX Odieresis Ydieresis -80
KPX Ugrave comma -130
KPX Ugrave period -76
KPX Ugrave A -108
KPX Ugrave Agrave -108
KPX Ugrave Aacute -108
KPX Ugrave Acircumflex -108
KPX Ugrave Atilde -108
KPX Ugrave Adieresis -108
KPX Ugrave Aring -108
KPX Uacute comma -130
KPX Uacute period -76
KPX Uacute A -108
KPX Uacute Agrave -108
KPX Uacute Aacute -108
KPX Uacute Acircumflex -108
KPX Uacute Atilde -108
KPX Uacute Adieresis -108
KPX Uacute Aring -108
KPX Ucircumflex comma -130
KPX Ucircumflex period -76
KPX Ucircumflex A -108
KPX Ucircumflex Agrave -108
KPX Ucircumflex Aacute -108
KPX Ucircumflex Acircumflex -108
KPX Ucircumflex Atilde -108
KPX Ucircumflex Adieresis -108
KPX Ucircumflex Aring -108
KPX Udieresis comma -130
KPX Udieresis period -76
KPX Udieresis A -108
KPX Udieresis Agrave -108
KPX Udieresis Aacute -108
KPX Udieresis Acircumflex -108
KPX Udieresis Atilde -108
KPX Udieresis Adieresis -108
KPX Udieresis Aring -108
KPX Ydieresis comma -174
KPX Ydieresis hyphen -86
KPX Ydieresis period -136
KPX Ydieresis colon -126
KPX Ydieresis semicolon -170
KPX Ydieresis A -134
KPX Ydieresis O -78
KPX Ydieresis S -16
KPX Ydieresis a -106
KPX Ydieresis e -118
KPX Ydieresis i -82
KPX Ydieresis o -120
KPX Ydieresis u -82
KPX Ydieresis oe -118
KPX Ydieresis Oslash -78
KPX Ydieresis ae -118
KPX Ydieresis oslash -120
KPX Ydieresis dotlessi -82
KPX Ydieresis Agrave -134
KPX Ydieresis Aacute -134
KPX Ydieresis Acircumflex -134
KPX Ydieresis Atilde -134
KPX Ydieresis Adieresis -134
KPX Ydieresis Aring -134
KPX Ydieresis Ograve -78
KPX Ydieresis Oacute -78
KPX Ydieresis Ocircumflex -78
KPX Ydieresis Otilde -78
KPX Ydieresis Odieresis -78
KPX Ydieresis agrave -106
KPX Ydieresis aacute -106
KPX Ydieresis acircumflex -106
KPX Ydieresis atilde -106
KPX Ydieresis adieresis -106
KPX Ydieresis aring -106
KPX Ydieresis egrave -118
KPX Ydieresis eacute -118
KPX Ydieresis ecircumflex -118
KPX Ydieresis edieresis -118
KPX Ydieresis ograve -120
KPX Ydieresis oacute -120
KPX Ydieresis ocircumflex -120
KPX Ydieresis otilde -120
KPX Ydieresis odieresis -120
KPX Ydieresis ugrave -82
KPX Ydieresis uacute -82
KPX Ydieresis ucircumflex -82
KPX Ydieresis udieresis -82
KPX Ydieresis igrave -82
KPX Ydieresis iacute -82
KPX Ydieresis icircumflex -82
KPX Ydieresis idieresis -82
KPX agrave b -52
KPX agrave t -22
KPX agrave v -44
KPX agrave w -44
KPX aacute b -52
KPX aacute t -22
KPX aacute v -44
KPX aacute w -44
KPX acircumflex b -52
KPX acircumflex t -22
KPX acircumflex v -44
KPX acircumflex w -44
KPX atilde b -52
KPX atilde t -22
KPX atilde v -44
KPX atilde w -44
KPX adieresis b -52
KPX adieresis t -22
KPX adieresis v -44
KPX adieresis w -44
KPX aring b -52
KPX aring t -22
KPX aring v -44
KPX aring w -44
KPX ccedilla comma -22
KPX ograve comma -46
KPX ograve v -32
KPX ograve w -32
KPX oacute comma -46
KPX oacute v -32
KPX oacute w -32
KPX ocircumflex comma -46
KPX ocircumflex v -32
KPX ocircumflex w -32
KPX otilde comma -46
KPX otilde v -32
KPX otilde w -32
KPX odieresis comma -46
KPX odieresis v -32
KPX odieresis w -32
KPX ydieresis comma -142
KPX ydieresis period -102
KPX ydieresis e -18
KPX ydieresis o -30
KPX ydieresis oe -18
KPX ydieresis ae -18
KPX ydieresis oslash -30
KPX ydieresis egrave -18
KPX ydieresis eacute -18
KPX ydieresis ecircumflex -18
KPX ydieresis edieresis -18
KPX ydieresis ograve -30
KPX ydieresis oacute -30
KPX ydieresis ocircumflex -30
KPX ydieresis otilde -30
KPX ydieresis odieresis -30
KPX quotedbl A -144
KPX quotedbl Agrave -144
KPX quotedbl Aacute -144
KPX quotedbl Acircumflex -144
KPX quotedbl Atilde -144
KPX quotedbl Adieresis -144
KPX quotedbl Aring -144
EndKernPairs
EndKernData
EndFontMetrics
